0 0 -0.5
0.033333 0 -0.49837
0.066667 0 -0.49363
0.1 0 -0.486
0.13333 0 -0.4757
0.16667 0 -0.46296
0.2 0 -0.448
0.23333 0 -0.43104
0.26667 0 -0.4123
0.3 0 -0.392
0.33333 0 -0.37037
0.36667 0 -0.34763
0.4 0 -0.324
0.43333 0 -0.2997
0.46667 0 -0.27496
0.5 0 -0.25
0.53333 0 -0.22504
0.56667 0 -0.2003
0.6 0 -0.176
0.63333 0 -0.15237
0.66667 0 -0.12963
0.7 0 -0.108
0.73333 0 -0.087704
0.76667 0 -0.068963
0.8 0 -0.052
0.83333 0 -0.037037
0.86667 0 -0.024296
0.9 0 -0.014
0.93333 0 -0.0063704
0.96667 0 -0.0016296
1 0 -0
1.0333 0 0
1.0667 0 0
1.1 0 0
1.1333 0 0
1.1667 0 0
1.2 0 0
1.2333 0 0
1.2667 0 0
1.3 0 0
1.3333 0 0
1.3667 0 0
1.4 0 0
1.4333 0 0
1.4667 0 0
1.5 0 0
1.5333 0 0
1.5667 0 0
1.6 0 0
1.6333 0 0
1.6667 0 0
1.7 0 0
1.7333 0 0
1.7667 0 0
1.8 0 0
1.8333 0 0
1.8667 0 0
1.9 0 0
1.9333 0 0
1.9667 0 0
2 0 0
